﻿{
  "$schema": "http://json.schemastore.org/launchsettings.json",
  "iisSettings": {
    "windowsAuthentication": false,
    "anonymousAuthentication": true,
    "iisExpress": {
      "applicationUrl": "http://localhost:11527",
      "sslPort": 44316
    }
  },
  "profiles": {
    "IIS Express": {
      "commandName": "IISExpress",
      "launchBrowser": true,
      "launchUrl": "swagger",
      "environmentVariables": {
        "ASPNETCORE_ENVIRONMENT": "Development",

        // "DbConnection": "Username=postgres;Password=NJPostgree;Server=localhost;Port=5433;Database=Gateway;",
        //"ConfigurationDbConnection": "Username=postgres;Password=NJPostgree;Server=localhost;Port=5433;Database=gateway_config;",

        "DbConnection": "Username=postgres;Password=Z8j7KqgzrTTS9RqY;Server=139.162.181.135;Port=5432;Database=omnidb;",
        "ConfigurationDbConnection": "Username=postgres;Password=Z8j7KqgzrTTS9RqY;Server=139.162.181.135;Port=5432;Database=omni_config_external;",
        "DataStorageDbConnection": "Username=postgres;Password=NJPostgree;Server=localhost;Port=5433;Database=Reporting;",
        "DbConnectionSchemaName": "omni",
        "ConfigurationDbConnectionSchemaName": "public",
        "Location": "localhost",
        "TenantKey": "9ce64459-25d0-4671-a287-8626c4661905",
        "LoginSignature": "fnvaN2S43O7wcQk218XOlhOpMEFV7a/OZc617BNbK4DDfyzFOiqS8AhpsNWAETKMvUIdfm2Dk5oXuKCT4OiDIA==",
        "LoginTokenUrl": "api/v1/Auth/Login",
        "TenantSignature": "mhl8djytIggNCFKxjdUizwHKRDjq6V7wT051J1wIuSwjq5swQZH2TJzf/SSkmgTiKzIbSjRcGeMmSSdrnPX0PQ==",
        "IdentityBaseUrl": "https://localhost:7230/",
        "GetTenantUrl": "api/v2/Tenants",
        "KeycloakIdentityBaseUrl": "https://omni-api-dev.montylocal.net/identity/",
        "realmUrl": "https://keycloak.omni-dev.montylocal.net/realms/omni-realm",
        "clientName": "omni-client",
        "realmName": "omni-realm",
        "clientId": "d917920d-5c04-46e6-b215-9fdbbe1ad287",
        "verificationType": "email",
        "clientSecret": "AOcfOgDBIi2uNU1Um3OW52EeboUk0p64"
      }
    },
    "BlackList": {
      "commandName": "Project",
      "launchBrowser": true,
      "launchUrl": "swagger",
      "applicationUrl": "https://localhost:5001;http://localhost:5000",
      "environmentVariables": {
        "ASPNETCORE_ENVIRONMENT": "Development"
      }
    }
  }
}
